instrument = response.xpath("//td[@class='data w35']/span/text()").get()
instrument_type = response.xpath("//tr[2]/td[2]/span/text()").get()
company = response.xpath("//tr[3]/td[2]/span/text()").get()
sector = response.xpath("//tr[4]/td[2]/span/a/text()").get()
subsector = response.xpath("//tr[5]/td[2]/span/a/text()").get()
quotation = response.xpath("//tr[1]/td[4]/span/text()").get()
quotation_date = response.xpath("//tr[2]/td[4]/span/text()").get()
min_52_weeks = response.xpath("//tr[3]/td[4]/span/text()").get()
max_52_weeks = response.xpath("//tr[4]/td[4]/span/text()").get()
avg_volume_2_months = response.xpath("//tr[5]/td[4]/span/text()").get()

market_value = response.xpath("//table[2]//tr[1]/td[2]/span/text()").get()
company_value = response.xpath("//table[2]//tr[2]/td[2]/span/text()").get()
last_balance_sheet = response.xpath("//table[2]//tr[1]/td[4]/span/text()").get()
num_of_shares = 

--Oscilacoes
table3 = response.xpath("//table[3]")
variance_day = table3.xpath("./tr[1]/td[2]/span//text()").get()
curr_month_variance = table3.xpath("./tr[3]/td[2]/span//text()").get()
30_days_variance = table3.xpath("./tr[4]/td[2]/span//text()").get()







